…
### Examine the contents and structure of the data set

Alternatively, to get a snapshot of the first ten rows of the data set,
as well as discription of its structure and contents, you can simply
type the name of the object in your script and hit run:

``` r
AFL_data_set
```

    ## # A tibble: 1,474 x 14
    ##    Game_ID Player_ID Position GameTotalMins GameTotalDistan… Disposals
    ##      <dbl>     <dbl> <chr>            <dbl>            <dbl>     <dbl>
    ##  1       1         2 DEFENCE          108.              13.3        17
    ##  2       1         5 DEFENCE          115.              14.2        21
    ##  3       1         6 MIDFIELD          90.1             12.3        12
    ##  4       1         7 DEFENCE          110.              13.2        19
    ##  5       1         8 FORWARD          109.              15.2        14
    ##  6       1        13 DEFENCE          116.              13.3        15
    ##  7       1        14 MIDFIELD         108.              14.3        17
    ##  8       1        16 MIDFIELD          95.8             11.9        21
    ##  9       1        21 DEFENCE          108.              13.8        11
    ## 10       1        22 MIDFIELD          91.8             12.0        14
    ## # … with 1,464 more rows, and 8 more variables: Disposal_efficiency <dbl>,
    ## #   Goals <dbl>, Tackles <dbl>, Marks <dbl>, Clearances <dbl>,
    ## #   Margin <dbl>, Rainfall_mm <dbl>, Wind_mph <dbl>
…
